study-note-on-validation.utf8.md
…
#use same code as paper for consistent results
chick_weight = as_tibble(ChickWeight) %>% 
  mutate(count = 1) %>% 
  mutate(sample = as.factor(sample(c("Test","Train"), nrow(ChickWeight), replace=TRUE, prob = c(0.3,0.7))))
  # mutate(sample = if_else(ntile(sample(1:1000,nrow(ChickWeight),replace=T),2) ==1 , ) #this could guarentee equal weights, need to split in non-equal buckets though and map back to train test 

#check split close to target
nrow(chick_weight %>% filter(sample == "Train"))/nrow(chick_weight) 

## [1] 0.7093426

chick_weight

## # A tibble: 578 x 6
##    weight  Time Chick Diet  count sample
##     <dbl> <dbl> <ord> <fct> <dbl> <fct> 
##  1     42     0 1     1         1 Train 
##  2     51     2 1     1         1 Test  
##  3     59     4 1     1         1 Train 
##  4     64     6 1     1         1 Test  
##  5     76     8 1     1         1 Test  
##  6     93    10 1     1         1 Train 
##  7    106    12 1     1         1 Train 
##  8    125    14 1     1         1 Test  
##  9    149    16 1     1         1 Train 
## 10    171    18 1     1         1 Train 
## # ... with 568 more rows
…
